Seascape2022 - OISST Poligonos BCP
…
ℹ Use `spec()` to retrieve the full column specification for this data.
ℹ Specify the column types or set `show_col_types = FALSE` to quiet this message.
Rows: 41 Columns: 7
── Column specification ────────────────────────────────────────────────────────
Delimiter: ","
chr (1): site
dbl (6): year, mean, min, max, summer, winter

ℹ Use `spec()` to retrieve the full column specification for this data.
ℹ Specify the column types or set `show_col_types = FALSE` to quiet this message.

data

# A tibble: 533 × 7
   site   year  mean   min   max summer winter
   <chr> <dbl> <dbl> <dbl> <dbl>  <dbl>  <dbl>
 1 BA     1981  20.4  17.3  23.0   NA     19.9
 2 BA     1982  19.2  14.2  25.4   18.4   19.0
 3 BA     1983  21.0  15.7  28.2   21.9   20.0
 4 BA     1984  19.6  14.6  25.7   20.6   18.7
 5 BA     1985  18.5  14.8  24.0   19.1   17.6
 6 BA     1986  18.8  15.3  22.7   18.6   19.1
 7 BA     1987  19.4  15.0  25.5   19.3   18.8
 8 BA     1988  18.2  15.5  22.2   18.8   17.5
 9 BA     1989  19.2  14.8  24.7   19.6   17.8
10 BA     1990  20.0  15.3  26.9   21.0   19.0
# … with 523 more rows
# ℹ Use `print(n = ...)` to see more rows
…
